J1_soc-master/hdl/simulation/j1soc_TB.vcd
$date
	Wed May 24 14:17:43 2017
$end
$version
	Icarus Verilog
$end
$timescale
	1s
$end
$scope module j1soc_TB $end
$scope module uut $end
$var wire 16 ! config_dout [15:0] $end
$var wire 16 " dp_ram_dout [15:0] $end
$var wire 16 # j1_io_addr [15:0] $end
$var wire 16 $ j1_io_dout [15:0] $end
$var wire 1 % j1_io_rd $end
$var wire 1 & j1_io_wr $end
$var wire 1 ' ledout $end
$var wire 1 ( sys_clk_i $end
$var wire 1 ) sys_rst_i $end
$var wire 1 * uart_dout $end
$var wire 1 + uart_tx $end
$var reg 4 , cs [1:4] $end
$var reg 16 - j1_io_din [15:0] $end
$scope module cpu0 $end
$var wire 1 . _dstkW $end
$var wire 1 / _ramWE $end
$var wire 2 0 dd [1:0] $end
$var wire 16 1 immediate [15:0] $end
$var wire 16 2 insn [15:0] $end
$var wire 16 3 io_addr [15:0] $end
$var wire 16 4 io_din [15:0] $end
$var wire 16 5 io_dout [15:0] $end
$var wire 1 % io_rd $end
$var wire 1 & io_wr $end
$var wire 1 6 is_alu $end
$var wire 1 7 is_lit $end
$var wire 16 8 pc_plus_1 [15:0] $end
$var wire 16 9 ramrd [15:0] $end
$var wire 2 : rd [1:0] $end
$var wire 16 ; rst0 [15:0] $end
$var wire 16 < st1 [15:0] $end
$var wire 1 ( sys_clk_i $end
$var wire 1 ) sys_rst_i $end
$var reg 5 = _dsp [4:0] $end
$var reg 13 > _pc [12:0] $end
$var reg 5 ? _rsp [4:0] $end
$var reg 16 @ _rstkD [15:0] $end
$var reg 1 A _rstkW $end
$var reg 16 B _st0 [15:0] $end
$var reg 5 C dsp [4:0] $end
$var reg 13 D pc [12:0] $end
$var reg 5 E rsp [4:0] $end
$var reg 16 F st0 [15:0] $end
$var reg 4 G st0sel [3:0] $end
$scope module ram0 $end
$var wire 13 H adr_a [12:0] $end
$var wire 13 I adr_b [12:0] $end
$var wire 1 ( clk_a $end
$var wire 1 ( clk_b $end
$var wire 16 J dat_a [15:0] $end
$var wire 1 K en_a $end
$var wire 1 L en_b $end
$var wire 1 M we_a $end
$var reg 16 N dat_a_out [15:0] $end
$var reg 16 O dat_b [15:0] $end
$upscope $end
$upscope $end
$scope module per_m $end
$var wire 1 P SIOC $end
$var wire 1 Q SIOD $end
$var wire 17 R addr [16:0] $end
$var wire 4 S addr1 [3:0] $end
$var wire 1 T cen $end
$var wire 1 U clk $end
$var wire 1 ( clk1 $end
$var wire 1 V con_clock $end
$var wire 1 W cs $end
$var wire 16 X d_in [15:0] $end
$var wire 1 Y en $end
$var wire 1 Z enable $end
$var wire 1 [ frame_done $end
$var wire 1 \ href $end
$var wire 1 ] p_clock $end
$var wire 8 ^ p_data [7:0] $end
$var wire 24 _ pixel_data [23:0] $end
$var wire 24 ` pixel_rgb [23:0] $end
$var wire 1 a pixel_valid $end
$var wire 1 % rd $end
$var wire 1 b reset $end
$var wire 1 c rst $end
$var wire 1 ) rst1 $end
$var wire 1 d rw $end
$var wire 1 e vsync $end
$var wire 1 & wr $end
$var reg 1 f capture $end
$var reg 16 g data_out [15:0] $end
$var reg 1 h done $end
$var reg 5 i s [4:0] $end
$scope module cc $end
$var wire 1 j enable $end
$var wire 1 \ href $end
$var wire 1 V p_clock $end
$var wire 8 k p_data [7:0] $end
$var wire 1 c rst $end
$var wire 1 e vsync $end
$var reg 2 l FSM [1:0] $end
$var reg 1 m SIOC $end
$var reg 1 n SIOD $end
$var reg 8 o cb [7:0] $end
$var reg 1 p contador $end
$var reg 8 q cr [7:0] $end
$var reg 1 r frame_done $end
$var reg 24 s pixel_data [23:0] $end
$var reg 1 t pixel_valid $end
$var reg 8 u y [7:0] $end
$upscope $end
$scope module rom1 $end
$var wire 17 v addr [16:0] $end
$var wire 1 T cen $end
$var wire 1 V clk $end
$var wire 24 w data_in [23:0] $end
$var wire 1 Y en $end
$var wire 1 d rw $end
$var reg 24 x data_out [23:0] $end
$upscope $end
$scope module cd $end
$var wire 1 ( clk $end
$var wire 1 b reset $end
$var reg 1 y con_clock $end
$upscope $end
$upscope $end
$scope module per_u $end
$var wire 4 z addr [3:0] $end
$var wire 1 ( clk $end
$var wire 1 { cs $end
$var wire 16 | d_in [15:0] $end
$var wire 1 % rd $end
$var wire 1 ) rst $end
$var wire 1 } uart_busy $end
$var wire 1 + uart_tx $end
$var wire 1 & wr $end
$var reg 8 ~ d_in_uart [7:0] $end
$var reg 16 !" d_out [15:0] $end
$var reg 1 "" ledout $end
$var reg 3 #" s [2:0] $end
$scope module uart $end
$var wire 29 $" dInc [28:0] $end
$var wire 29 %" dNxt [28:0] $end
$var wire 1 &" sending $end
$var wire 1 '" ser_clk $end
$var wire 1 ( sys_clk_i $end
$var wire 1 ) sys_rst_i $end
$var wire 1 } uart_busy $end
$var wire 8 (" uart_dat_i [7:0] $end
$var wire 1 )" uart_wr_i $end
$var reg 4 *" bitcount [3:0] $end
$var reg 29 +" d [28:0] $end
$var reg 9 ," shifter [8:0] $end
$var reg 1 -" uart_tx $end
$upscope $end
$upscope $end
$scope module dpRm $end
$var wire 8 ." addr [7:0] $end
$var wire 8 /" addr_p [7:0] $end
$var wire 1 ( clk $end
$var wire 1 0" cs $end
$var wire 16 1" d_in [15:0] $end
$var wire 16 2" d_in_p [15:0] $end
$var wire 16 3" d_out [15:0] $end
$var wire 16 4" d_out_p [15:0] $end
$var wire 1 % rd $end
$var wire 1 5" rd_p $end
$var wire 1 & wr $end
$var wire 1 6" wr_p $end
$scope module dlptRAM $end
$var wire 8 7" addr_1 [7:0] $end
$var wire 8 8" addr_2 [7:0] $end
$var wire 1 ( clk $end
$var wire 16 9" d_in_1 [15:0] $end
$var wire 16 :" d_in_2 [15:0] $end
$var wire 1 ;" rd_1 $end
$var wire 1 5" rd_2 $end
$var wire 1 <" wr_1 $end
$var wire 1 6" wr_2 $end
$var reg 16 =" d_out_1 [15:0] $end
$var reg 16 >" d_out_2 [15:0] $end
$upscope $end
$scope module c_p $end
$var wire 1 ( clk $end
$var wire 16 ?" d_in [15:0] $end
$var reg 16 @" F_1 [15:0] $end
$var reg 16 A" F_2 [15:0] $end
$var reg 16 B" F_3 [15:0] $end
$var reg 16 C" F_4 [15:0] $end
$var reg 16 D" F_5 [15:0] $end
$var reg 16 E" F_6 [15:0] $end
$var reg 8 F" addr [7:0] $end
$var reg 16 G" d_out [15:0] $end
$var reg 4 H" estado [3:0] $end
$var reg 1 I" rd $end
$var reg 1 J" wr $end
$upscope $end
$upscope $end
$upscope $end
$upscope $end
$enddefinitions $end
#0
$dumpvars
0J"
1I"
b0 H"
b0 G"
b1010 F"
b0 E"
b0 D"
b0 C"
b0 B"
b0 A"
b0 @"
b0 ?"
b0 >"
b0 ="
0<"
0;"
b0 :"
bx 9"
b1010 8"
b0 7"
06"
15"
b0 4"
b0 3"
b0 2"
bx 1"
00"
b1010 /"
b0 ."
1-"
b0 ,"
b0 +"
b0 *"
0)"
bx ("
1'"
0&"
b11010000010111110000100000000 %"
b11010000010111110000100000000 $"
b0 #"
0""
bx !"
bx ~
0}
bx |
0{
b0 z
xy
bx x
bx w
bz v
bx u
xt
bx s
xr
bx q
xp
bx o
xn
xm
b0 l
bz k
1j
b0 i
0h
bx g
1f
ze
zd
zc
zb
xa
bx `
bx _
bz ^
z]
z\
x[
zZ
zY
bx X
0W
xV
zU
zT
b0 S
bz R
xQ
xP
bx O
bx N
xM
1L
xK
bx J
b0 I
b0 H
bx G
b0 F
b0 E
b0 D
b0 C
bx B
0A
b0 @
b0 ?
b0 >
b0 =
bx <
bx ;
bx :
bx 9
b1 8
x7
x6
bx 5
b11001100110 4
b0 3
bx 2
b0xxxxxxxxxxxxxxx 1
bx 0
x/
x.
b11001100110 -
b0 ,
1+
x*
1)
1(
0'
x&
0%
bx $
b0 #
b0 "
bx !
$end
#1
bx >"
bx 4"
bx ?"
0*
b0 !"
0(
#2
0M
1K
0.
0/
0&
b0 B
b11 :
b10 0
07
06
b10000001110 1
b0 G
b10000001110 O
b10000001110 2
bx E"
1(
#3
0(
#4
b10000001110 N
b10000001110 9
1(
#5
0(
#6
1(
#7
0(
#8
1(
#9
0(
#10
1.
xK
bx B
b10000001111 8
b0 :
b0 0
16
b110000110000000 1
b1 G
b10000001110 D
b110000110000000 O
b110000110000000 2
b11100001000000000 $"
0'"
b0 @
b11010000010111110000100000000 +"
b11010000011011010001100000000 %"
b10000001111 >
b10000001111 I
1(
0)
#11
0(
#12
0.
b1 ?
b11111 =
bx H
b1 :
b11 0
b110000101000111 1
bx @
1A
bx ."
bx 7"
bx z
bx S
b10000010000 >
b10000010000 I
b10000010000 8
b110000101000111 O
b110000101000111 2
bx F
bx #
bx 3
b10000001111 D
1K
b0 B
b0 $
b0 5
b0 X
b0 |
b0 1"
b0 9"
b0 <
b0 J
b11010000011011010001100000000 +"
b11010000011110110010100000000 %"
1(
#13
0(
#14
b0 H
xK
b0 ."
b0 7"
b0 z
b0 S
b10000010001 >
b10000010001 I
b10000010001 8
b0 @
b10 ?
b11110 =
bx B
b1 E
b0 F
b0 #
b0 3
b10000010000 D
b11111 C
bx $
bx 5
bx X
bx |
bx 1"
bx 9"
bx <
bx J
bx N
bx 9
b11010000011110110010100000000 +"
b11010000100010010011100000000 %"
1(
#15
0(
#16
1.
bx H
1K
b0 :
b1 0
17
06
b1 1
b0 G
bx ."
bx 7"
bx z
bx S
b10000010010 >
b10000010010 I
b10000010010 8
b10000010010 @
0A
b10 ?
b11111 =
b1 B
b1000000000000001 O
b1000000000000001 2
b10 E
b0 ;
bx F
bx #
bx 3
b10000010001 D
b11110 C
b11010000100010010011100000000 +"
b11010000100101110100100000000 %"
1(
#17
0(
#18
b10000010011 @
0K
b0 H
b10000010011 >
b10000010011 I
b110011100000000 B
b1 ."
b1 7"
b1 z
b1 S
b10000010011 8
b0 0
b110011100000000 1
b111 G
b0 =
b1 F
b1 #
b1 3
b10000010010 D
b11111 C
b1110011100000000 O
b1110011100000000 2
b11010000100101110100100000000 +"
b11010000101001010101100000000 %"
1(
#19
0(
#20
b1 i
0M
0.
1/
1&
b1001110000000 H
bx -
bx 4
1W
b110011100000000 @
0K
b11 0
07
16
b110000000100011 1
b0 G
b0 ."
b0 7"
b0 z
b0 S
b1000 ,
b10000010100 >
b10000010100 I
b10000010100 8
b11111 =
b110011100000000 B
b110000000100011 O
b110000000100011 2
b110011100000000 F
b110011100000000 #
b110011100000000 3
b10000010011 D
b0 C
b1 $
b1 5
b1 X
b1 |
b1 1"
b1 9"
b1 <
b1 J
b11010000101001010101100000000 +"
b11010000101100110110100000000 %"
1(
#21
0(
#22
b0 i
xK
b10000010101 >
b10000010101 I
0/
0&
bx B
b10000010101 8
b110000100000011 1
b1 G
b11110 =
b10000010100 D
b11111 C
bx $
bx 5
bx X
bx |
bx 1"
bx 9"
bx <
bx J
b110000100000011 O
b110000100000011 2
b11010000101100110110100000000 +"
b11010000110000010111100000000 %"
1(
#23
0(
#24
bx H
b11001100110 -
b11001100110 4
0W
b11 ?
b10 :
b1 0
06
b100000001001001 1
b0 G
bx ."
bx 7"
bx z
bx S
b0 ,
b1001001 >
b1001001 I
b10000010110 8
b100000101100 @
1A
b11110 =
b100000001001001 O
b100000001001001 2
bx F
bx #
bx 3
b10000010101 D
b11110 C
b11010000110000010111100000000 +"
b11010000110011111000100000000 %"
1(
#25
0(
#26
1.
1K
b10 ?
b11111 =
b100000101100 B
b1001010 8
b11 :
16
b110101110001101 1
b1011 G
bx @
0A
b1001010 >
b1001010 I
b11 E
b100000101100 ;
b1001001 D
b110101110001101 O
b110101110001101 2
b11010000110011111000100000000 +"
b11010000110111011001100000000 %"
1(
#27
0(
#28
b10000010110 H
b101100 ."
b101100 7"
b1100 z
b1100 S
b1001011 >
b1001011 I
b1001011 8
b100000101100 @
b1 ?
b0 =
b0 B
b10 E
b0 ;
b100000101100 F
b100000101100 #
b100000101100 3
b1001010 D
b11111 C
b11010000110111011001100000000 +"
b11010000111010111010100000000 %"
1(
#29
0(
#30
0.
b0 H
1A
1K
b0 ."
b0 7"
b0 z
b0 S
b1001100 8
b1 :
06
b100000000000101 1
b0 G
b0 B
b10011000 @
b10 ?
b0 =
b101 >
b101 I
b1 E
bx ;
b0 F
b0 #
b0 3
b1001011 D
b0 C
b100000101100 $
b100000101100 5
b100000101100 X
b100000101100 |
b100000101100 1"
b100000101100 9"
b100000101100 <
b100000101100 J
b10010000010001 N
b10010000010001 9
b100000000000101 O
b100000000000101 2
b11010000111010111010100000000 +"
b11010000111110011011100000000 %"
1(
#31
0(
#32
b1 =
1.
1K
b0 :
17
b1 1
b110 @
0A
b1 B
b110 >
b110 I
b110 8
b1000000000000001 O
b1000000000000001 2
b10000001110 N
b10000001110 9
b10 E
b10011000 ;
b101 D
b11010000111110011011100000000 +"
b11010001000001111100100000000 %"
1(
#33
0(
#34
0.
b1001100 >
b1001100 I
b1 @
b1 ?
b1 ."
b1 7"
b1 z
b1 S
b111 8
b11 :
b11 0
07
16
b111001000001111 1
b10 G
b0 =
b1 F
b1 #
b1 3
b110 D
b1 C
b0 $
b0 5
b0 X
b0 |
b0 1"
b0 9"
b0 <
b0 J
b111001000001111 O
b111001000001111 2
b11010001000001111100100000000 +"
b11010001000101011101100000000 %"
1(
#35
0(
#36
1.
xK
b0 :
b1 0
b110101110000001 1
b1011 G
b1001101 >
b1001101 I
b1001101 8
b1 ?
b1 =
bx B
b110101110000001 O
b110101110000001 2
b1 E
bx ;
b1001100 D
b0 C
b100000101100 $
b100000101100 5
b100000101100 X
b100000101100 |
b100000101100 1"
b100000101100 9"
b100000101100 <
b100000101100 J
b11010001000101011101100000000 +"
b11010001001000111110100000000 %"
1(
#37
0(
#38
1K
bx H
b1001110 >
b1001110 I
b1 B
bx ."
bx 7"
bx z
bx S
b1001110 8
b110000110000001 1
b1 G
bx @
b10 =
bx F
bx #
bx 3
b1001101 D
b1 C
b1 $
b1 5
b1 X
b1 |
b1 1"
b1 9"
b1 <
b1 J
b110000110000001 O
b110000110000001 2
b11010001001000111110100000000 +"
b11010001001100011111100000000 %"
1(
#39
0(
#40
0.
b0 H
xK
b11 0
b110011100000011 1
b111 G
b1 ."
b1 7"
b1 z
b1 S
b1001111 >
b1001111 I
b1001111 8
b1 @
b1 =
bx B
b110011100000011 O
b110011100000011 2
bx N
bx 9
b1 F
b1 #
b1 3
b1001110 D
b10 C
bx $
bx 5
bx X
bx |
bx 1"
bx 9"
bx <
bx J
b11010001001100011111100000000 +"
b11010001010000000000100000000 %"
1(
#41
0(
#42
1.
bx H
b1010000 >
b1010000 I
bx ."
bx 7"
bx z
bx S
b1010000 8
b1 0
b110000010000001 1
b0 G
bx @
b10 =
bx F
bx #
bx 3
b1001111 D
b1 C
b1 $
b1 5
b1 X
b1 |
b1 1"
b1 9"
b1 <
b1 J
b110000010000001 O
b110000010000001 2
b11010001010000000000100000000 +"
b11010001010011100001100000000 %"
1(
#43
0(
#44
0.
b1010001 @
b1 :
06
b10000001010101 1
b1 G
b1010001 >
b1010001 I
b1010001 8
0A
b1 =
b10000001010101 O
b10000001010101 2
b1010000 D
b10 C
bx $
bx 5
bx X
bx |
bx 1"
bx 9"
bx <
bx J
b11010001010011100001100000000 +"
b11010001010111000010100000000 %"
1(
#45
0(
#46
b1010010 >
b1010010 I
bx @
b0 =
xK
b1010010 8
b0 :
b11 0
16
b110000000000011 1
b0 G
bx B
b1010001 D
b1 C
b1 $
b1 5
b1 X
b1 |
b1 1"
b1 9"
b1 <
b1 J
b110000000000011 O
b110000000000011 2
b11010001010111000010100000000 +"
b11010001011010100011100000000 %"
1(
#47
0(
#48
1.
b0 ?
b11 :
b1 0
b110101110001101 1
b1011 G
b1010011 >
b1010011 I
b1010011 8
b1 =
b110101110001101 O
b110101110001101 2
b1010010 D
b0 C
b100000101100 $
b100000101100 5
b100000101100 X
b100000101100 |
b100000101100 1"
b100000101100 9"
b100000101100 <
b100000101100 J
b11010001011010100011100000000 +"
b11010001011110000100100000000 %"
1(
#49
0(
#50
0.
b1010100 >
b1010100 I
b1010100 8
b0 :
b11 0
b110000100000011 1
b1 G
b0 ?
b0 =
b0 E
b1010011 D
b1 C
bx $
bx 5
bx X
bx |
bx 1"
bx 9"
bx <
bx J
b110000100000011 O
b110000100000011 2
b11010001011110000100100000000 +"
b11010001100001100101100000000 %"
1(
#51
0(
#52
b1010111 @
xK
b1 :
06
b1010111 1
b0 G
b1010111 >
b1010111 I
b1010101 8
0A
b0 =
bx B
b1010111 O
b1010111 2
b1010100 D
b0 C
b100000101100 $
b100000101100 5
b100000101100 X
b100000101100 |
b100000101100 1"
b100000101100 9"
b100000101100 <
b100000101100 J
b11010001100001100101100000000 +"
b11010001100101000110100000000 %"
1(
#53
0(
#54
1.
1K
b100000101100 B
b1011000 8
b0 :
b0 0
16
b110000110000000 1
b1 G
bx @
b1011000 >
b1011000 I
b1010111 D
b110000110000000 O
b110000110000000 2
b11010001100101000110100000000 +"
b11010001101000100111100000000 %"
1(
#55
0(
#56
0.
b1 ?
b11111 =
b10000010110 H
b1 :
b11 0
b110000101000111 1
b100000101100 @
1A
b101100 ."
b101100 7"
b1100 z
b1100 S
b1011001 >
b1011001 I
b1011001 8
b110000101000111 O
b110000101000111 2
b100000101100 F
b100000101100 #
b100000101100 3
b1011000 D
xK
bx B
bx $
bx 5
bx X
bx |
bx 1"
bx 9"
bx <
bx J
b11010001101000100111100000000 +"
b11010001101100001000100000000 %"
1(
#57
0(
#58
bx H
bx ."
bx 7"
bx z
bx S
b1011010 8
b11 :
b0 0
b111000000001100 1
b0 G
bx @
0A
b0 ?
b11111 =
b10000010110 >
b10000010110 I
b1 E
b100000101100 ;
bx F
bx #
bx 3
b1011001 D
b11111 C
b111000000001100 O
b111000000001100 2
b11010001101100001000100000000 +"
b11010001101111101001100000000 %"
1(
#59
0(
#60
b10000010111 @
b11110 =
b0 :
b1 0
06
b10010000010001 1
b1 G
b0 ?
b10000010111 >
b10000010111 I
b10000010111 8
b10010000010001 O
b10010000010001 2
b0 E
bx ;
b10000010110 D
b11010001101111101001100000000 +"
b11010001110011001010100000000 %"
1(
#61
0(
#62
bx >
bx I
bx @
b11111 ?
b10000011000 8
b11 :
b0 0
16
b111000000001100 1
b0 G
b10000010111 D
b11110 C
b111000000001100 O
b111000000001100 2
b11010001110011001010100000000 +"
b11010001110110101011100000000 %"
1(
#63
0(
#64
xM
x%
x.
b0xxxxxxxxxxxxx @
x/
x&
bx :
bx 0
x7
x6
b0xxxxxxxxxxxxxxx 1
bx G
0A
b11111 ?
bx 8
bx O
bx 2
b11111 E
bx D
b11010001110110101011100000000 +"
b11010001111010001100100000000 %"
1(
#65
0(
#66
b11010001111010001100100000000 +"
b11010001111101101101100000000 %"
1(
#67
0(
#68
b11010001111101101101100000000 +"
b11010010000001001110100000000 %"
1(
#69
0(
#70
b11010010000001001110100000000 +"
b11010010000100101111100000000 %"
1(
#71
0(
#72
b11010010000100101111100000000 +"
b11010010001000010000100000000 %"
1(
#73
0(
#74
b11010010001000010000100000000 +"
b11010010001011110001100000000 %"
1(
#75
0(
#76
b11010010001011110001100000000 +"
b11010010001111010010100000000 %"
1(
#77
0(
#78
b11010010001111010010100000000 +"
b11010010010010110011100000000 %"
1(
#79
0(
#80
b11010010010010110011100000000 +"
b11010010010110010100100000000 %"
1(
#81
0(
#82
b11010010010110010100100000000 +"
b11010010011001110101100000000 %"
1(
#83
0(
#84
b11010010011001110101100000000 +"
b11010010011101010110100000000 %"
1(
#85
0(
#86
b11010010011101010110100000000 +"
b11010010100000110111100000000 %"
1(
#87
0(
#88
b11010010100000110111100000000 +"
b11010010100100011000100000000 %"
1(
#89
0(
#90
b11010010100100011000100000000 +"
b11010010100111111001100000000 %"
1(
#91
0(
#92
b11010010100111111001100000000 +"
b11010010101011011010100000000 %"
1(
#93
0(
#94
b11010010101011011010100000000 +"
b11010010101110111011100000000 %"
1(
#95
0(
#96
b11010010101110111011100000000 +"
b11010010110010011100100000000 %"
1(
#97
0(
#98
b11010010110010011100100000000 +"
b11010010110101111101100000000 %"
1(
#99
0(
#100
b11010010110101111101100000000 +"
b11010010111001011110100000000 %"
1(
#101
0(
#102
b11010010111001011110100000000 +"
b11010010111100111111100000000 %"
1(
#103
0(
#104
b11010010111100111111100000000 +"
b11010011000000100000100000000 %"
1(
#105
0(
#106
b11010011000000100000100000000 +"
b11010011000100000001100000000 %"
1(
#107
0(
#108
b11010011000100000001100000000 +"
b11010011000111100010100000000 %"
1(
#109
0(
#110
b11010011000111100010100000000 +"
b11010011001011000011100000000 %"
1(
#111
0(
#112
b11010011001011000011100000000 +"
b11010011001110100100100000000 %"
1(
#113
0(
#114
b11010011001110100100100000000 +"
b11010011010010000101100000000 %"
1(
#115
0(
#116
b11010011010010000101100000000 +"
b11010011010101100110100000000 %"
1(
#117
0(
#118
b11010011010101100110100000000 +"
b11010011011001000111100000000 %"
1(
#119
0(
#120
b11010011011001000111100000000 +"
b11010011011100101000100000000 %"
1(
#121
0(
#122
b11010011011100101000100000000 +"
b11010011100000001001100000000 %"
1(
#123
0(
#124
b11010011100000001001100000000 +"
b11010011100011101010100000000 %"
1(
#125
0(
#126
b11010011100011101010100000000 +"
b11010011100111001011100000000 %"
1(
#127
0(
#128
b11010011100111001011100000000 +"
b11010011101010101100100000000 %"
1(
#129
0(
#130
b11010011101010101100100000000 +"
b11010011101110001101100000000 %"
1(
#131
0(
#132
b11010011101110001101100000000 +"
b11010011110001101110100000000 %"
1(
#133
0(
#134
b11010011110001101110100000000 +"
b11010011110101001111100000000 %"
1(
#135
0(
#136
b11010011110101001111100000000 +"
b11010011111000110000100000000 %"
1(
#137
0(
#138
b11010011111000110000100000000 +"
b11010011111100010001100000000 %"
1(
#139
0(
#140
b11010011111100010001100000000 +"
b11010011111111110010100000000 %"
1(
#141
0(
#142
b11010011111111110010100000000 +"
b11010100000011010011100000000 %"
1(
#143
0(
#144
b11010100000011010011100000000 +"
b11010100000110110100100000000 %"
1(
#145
0(
#146
b11010100000110110100100000000 +"
b11010100001010010101100000000 %"
1(
#147
0(
#148
b11010100001010010101100000000 +"
b11010100001101110110100000000 %"
1(
#149
0(
#150
b11010100001101110110100000000 +"
b11010100010001010111100000000 %"
1(
#151
0(
#152
b11010100010001010111100000000 +"
b11010100010100111000100000000 %"
1(
#153
0(
#154
b11010100010100111000100000000 +"
b11010100011000011001100000000 %"
1(
#155
0(
#156
b11010100011000011001100000000 +"
b11010100011011111010100000000 %"
1(
#157
0(
#158
b11010100011011111010100000000 +"
b11010100011111011011100000000 %"
1(
#159
0(
#160
b11010100011111011011100000000 +"
b11010100100010111100100000000 %"
1(
#161
0(
#162
b11010100100010111100100000000 +"
b11010100100110011101100000000 %"
1(
#163
0(
#164
b11010100100110011101100000000 +"
b11010100101001111110100000000 %"
1(
#165
0(
#166
b11010100101001111110100000000 +"
b11010100101101011111100000000 %"
1(
#167
0(
#168
b11010100101101011111100000000 +"
b11010100110001000000100000000 %"
1(
#169
0(
#170
b11010100110001000000100000000 +"
b11010100110100100001100000000 %"
1(
#171
0(
#172
b11010100110100100001100000000 +"
b11010100111000000010100000000 %"
1(
#173
0(
#174
b11010100111000000010100000000 +"
b11010100111011100011100000000 %"
1(
#175
0(
#176
b11010100111011100011100000000 +"
b11010100111111000100100000000 %"
1(
#177
0(
#178
b11010100111111000100100000000 +"
b11010101000010100101100000000 %"
1(
#179
0(
#180
b11010101000010100101100000000 +"
b11010101000110000110100000000 %"
1(
#181
0(
#182
b11010101000110000110100000000 +"
b11010101001001100111100000000 %"
1(
#183
0(
#184
b11010101001001100111100000000 +"
b11010101001101001000100000000 %"
1(
#185
0(
#186
b11010101001101001000100000000 +"
b11010101010000101001100000000 %"
1(
#187
0(
#188
b11010101010000101001100000000 +"
b11010101010100001010100000000 %"
1(
#189
0(
#190
b11010101010100001010100000000 +"
b11010101010111101011100000000 %"
1(
#191
0(
#192
b11010101010111101011100000000 +"
b11010101011011001100100000000 %"
1(
#193
0(
#194
b11010101011011001100100000000 +"
b11010101011110101101100000000 %"
1(
#195
0(
#196
b11010101011110101101100000000 +"
b11010101100010001110100000000 %"
1(
#197
0(
#198
b11010101100010001110100000000 +"
b11010101100101101111100000000 %"
1(
#199
0(
#200
b11010101100101101111100000000 +"
b11010101101001010000100000000 %"
1(
#201
0(
#202
b11010101101001010000100000000 +"
b11010101101100110001100000000 %"
1(
#203
0(
#204
b11010101101100110001100000000 +"
b11010101110000010010100000000 %"
1(
#205
0(
#206
b11010101110000010010100000000 +"
b11010101110011110011100000000 %"
1(
#207
0(
#208
b11010101110011110011100000000 +"
b11010101110111010100100000000 %"
1(
#209
0(
#210
b11010101110111010100100000000 +"
b11010101111010110101100000000 %"
1(
#211
0(
#212
b11010101111010110101100000000 +"
b11010101111110010110100000000 %"
1(
#213
0(
#214
b11010101111110010110100000000 +"
b11010110000001110111100000000 %"
1(
#215
0(
#216
b11010110000001110111100000000 +"
b11010110000101011000100000000 %"
1(
#217
0(
#218
b11010110000101011000100000000 +"
b11010110001000111001100000000 %"
1(
#219
0(
#220
b11010110001000111001100000000 +"
b11010110001100011010100000000 %"
1(
#221
0(
#222
b11010110001100011010100000000 +"
b11010110001111111011100000000 %"
1(
#223
0(
#224
b11010110001111111011100000000 +"
b11010110010011011100100000000 %"
1(
#225
0(
#226
b11010110010011011100100000000 +"
b11010110010110111101100000000 %"
1(
#227
0(
#228
b11010110010110111101100000000 +"
b11010110011010011110100000000 %"
1(
#229
0(
#230
b11010110011010011110100000000 +"
b11010110011101111111100000000 %"
1(
#231
0(
#232
b11010110011101111111100000000 +"
b11010110100001100000100000000 %"
1(
#233
0(
#234
b11010110100001100000100000000 +"
b11010110100101000001100000000 %"
1(
#235
0(
#236
b11010110100101000001100000000 +"
b11010110101000100010100000000 %"
1(
#237
0(
#238
b11010110101000100010100000000 +"
b11010110101100000011100000000 %"
1(
#239
0(
#240
b11010110101100000011100000000 +"
b11010110101111100100100000000 %"
1(
#241
0(
#242
b11010110101111100100100000000 +"
b11010110110011000101100000000 %"
1(
#243
0(
#244
b11010110110011000101100000000 +"
b11010110110110100110100000000 %"
1(
#245
0(
#246
b11010110110110100110100000000 +"
b11010110111010000111100000000 %"
1(
#247
0(
#248
b11010110111010000111100000000 +"
b11010110111101101000100000000 %"
1(
#249
0(
#250
b11010110111101101000100000000 +"
b11010111000001001001100000000 %"
1(
#251
0(
#252
b11010111000001001001100000000 +"
b11010111000100101010100000000 %"
1(
#253
0(
#254
b11010111000100101010100000000 +"
b11010111001000001011100000000 %"
1(
#255
0(
#256
b11010111001000001011100000000 +"
b11010111001011101100100000000 %"
1(
#257
0(
#258
b11010111001011101100100000000 +"
b11010111001111001101100000000 %"
1(
#259
0(
#260
b11010111001111001101100000000 +"
b11010111010010101110100000000 %"
1(
#261
0(
#262
b11010111010010101110100000000 +"
b11010111010110001111100000000 %"
1(
#263
0(
#264
b11010111010110001111100000000 +"
b11010111011001110000100000000 %"
1(
#265
0(
#266
b11010111011001110000100000000 +"
b11010111011101010001100000000 %"
1(
#267
0(
#268
b11010111011101010001100000000 +"
b11010111100000110010100000000 %"
1(
#269
0(
#270
b11010111100000110010100000000 +"
b11010111100100010011100000000 %"
1(
#271
0(
#272
b11010111100100010011100000000 +"
b11010111100111110100100000000 %"
1(
#273
0(
#274
b11010111100111110100100000000 +"
b11010111101011010101100000000 %"
1(
#275
0(
#276
b11010111101011010101100000000 +"
b11010111101110110110100000000 %"
1(
#277
0(
#278
b11010111101110110110100000000 +"
b11010111110010010111100000000 %"
1(
#279
0(
#280
b11010111110010010111100000000 +"
b11010111110101111000100000000 %"
1(
#281
0(
#282
b11010111110101111000100000000 +"
b11010111111001011001100000000 %"
1(
#283
0(
#284
b11010111111001011001100000000 +"
b11010111111100111010100000000 %"
1(
#285
0(
#286
b11010111111100111010100000000 +"
b11011000000000011011100000000 %"
1(
#287
0(
#288
b11011000000000011011100000000 +"
b11011000000011111100100000000 %"
1(
#289
0(
#290
b11011000000011111100100000000 +"
b11011000000111011101100000000 %"
1(
#291
0(
#292
b11011000000111011101100000000 +"
b11011000001010111110100000000 %"
1(
#293
0(
#294
b11011000001010111110100000000 +"
b11011000001110011111100000000 %"
1(
#295
0(
#296
b11011000001110011111100000000 +"
b11011000010010000000100000000 %"
1(
#297
0(
#298
b11011000010010000000100000000 +"
b11011000010101100001100000000 %"
1(
#299
0(
#300
b11011000010101100001100000000 +"
b11011000011001000010100000000 %"
1(
#301
0(
#302
b11011000011001000010100000000 +"
b11011000011100100011100000000 %"
1(
#303
0(
#304
b11011000011100100011100000000 +"
b11011000100000000100100000000 %"
1(
#305
0(
#306
b11011000100000000100100000000 +"
b11011000100011100101100000000 %"
1(
#307
0(
#308
b11011000100011100101100000000 +"
b11011000100111000110100000000 %"
1(
#309
0(
#310
b11011000100111000110100000000 +"
b11011000101010100111100000000 %"
1(
#311
0(
#312
b11011000101010100111100000000 +"
b11011000101110001000100000000 %"
1(
#313
0(
#314
b11011000101110001000100000000 +"
b11011000110001101001100000000 %"
1(
#315
0(
#316
b11011000110001101001100000000 +"
b11011000110101001010100000000 %"
1(
#317
0(
#318
b11011000110101001010100000000 +"
b11011000111000101011100000000 %"
1(
#319
0(
#320
b11011000111000101011100000000 +"
b11011000111100001100100000000 %"
1(
#321
0(
#322
b11011000111100001100100000000 +"
b11011000111111101101100000000 %"
1(
#323
0(
#324
b11011000111111101101100000000 +"
b11011001000011001110100000000 %"
1(
#325
0(
#326
b11011001000011001110100000000 +"
b11011001000110101111100000000 %"
1(
#327
0(
#328
b11011001000110101111100000000 +"
b11011001001010010000100000000 %"
1(
#329
0(
